<?xml version="1.0" encoding="UTF-8"?>
<svg width="16px" height="16px" viewBox="0 0 16 16" version="1.1" xmlns="http://www.w3.org/2000/svg" xmlns:xlink="http://www.w3.org/1999/xlink">
    <!-- Generator: sketchtool 56.2 (101010) - https://sketch.com -->
    <title>470631F5-CAA3-4CC7-A7ED-5B534C37D5D4@1.5x</title>
    <desc>Created with sketchtool.</desc>
    <g id="Page-1" stroke="none" stroke-width="1" fill="none" fill-rule="evenodd" stroke-linecap="round" stroke-linejoin="round">
        <g id="Design-Naming-Copy-3" transform="translate(-1663.000000, -2467.000000)" stroke="#000" stroke-width="2">
            <g id="arrow-right-(36)" transform="translate(1664.000000, 2468.000000)">
                <path d="M0,7 L14,7" id="Path"></path>
                <polyline id="Path" points="7 0 14 7 7 14"></polyline>
            </g>
        </g>
    </g>
</svg>