<?xml version="1.0" encoding="UTF-8"?>
<svg width="109px" height="209px" viewBox="0 0 109 209" version="1.1" xmlns="http://www.w3.org/2000/svg" xmlns:xlink="http://www.w3.org/1999/xlink">
    <!-- Generator: Sketch 56.3 (81716) - https://sketch.com -->
    <title>Group 17@1.5x</title>
    <desc>Created with Sketch.</desc>
    <g id="Page-1" stroke="none" stroke-width="1" fill="none" fill-rule="evenodd">
        <g id="ecommerce-marketing-copy-2" transform="translate(-782.000000, -2864.000000)" fill="#C5A36A">
            <g id="Group-12" transform="translate(0.000000, 2324.000000)">
                <g id="Group-17" transform="translate(782.000000, 540.000000)">
                    <path d="M104,0.00117093924 L104,10.0012025 C52.0391389,10.2704851 10,52.4758591 10,104.5 C10,156.524141 52.0391389,198.729515 104,198.998705 L104,208.998913 C46.5162658,208.72954 0,162.046998 0,104.5 C0,46.9530018 46.5162658,0.270459667 104,0.00117093924 Z" id="Combined-Shape" fill-rule="nonzero"></path>
                    <circle id="Oval" cx="104" cy="5" r="5"></circle>
                </g>
            </g>
        </g>
    </g>
</svg>