<?xml version="1.0" encoding="UTF-8"?>
<svg width="18px" height="22px" viewBox="0 0 18 22" version="1.1" xmlns="http://www.w3.org/2000/svg" xmlns:xlink="http://www.w3.org/1999/xlink">
    <!-- Generator: sketchtool 56.2 (101010) - https://sketch.com -->
    <title>E455F0BE-140C-4CEC-BAA0-3EFAA462855A@1.5x</title>
    <desc>Created with sketchtool.</desc>
    <g id="Page-1" stroke="none" stroke-width="1" fill="none" fill-rule="evenodd" stroke-linecap="round" stroke-linejoin="round">
        <g id="ecommerce-marketing-copy-2" transform="translate(-922.000000, -2858.000000)" stroke="#C5A36A" stroke-width="2">
            <g id="Group-12" transform="translate(0.000000, 2324.000000)">
                <g id="clipboard-(2)" transform="translate(923.000000, 535.000000)">
                    <path d="M12,2 L14,2 C15.1045695,2 16,2.8954305 16,4 L16,18 C16,19.1045695 15.1045695,20 14,20 L2,20 C0.8954305,20 0,19.1045695 0,18 L0,4 C0,2.8954305 0.8954305,2 2,2 L4,2" id="Path"></path>
                    <rect id="Rectangle" x="4" y="0" width="8" height="4" rx="1"></rect>
                </g>
            </g>
        </g>
    </g>
</svg>